{
  "id": "5860f93e-9ee9-470e-ac4d-e53b0b8acc3e",
  "name": "Save to Mailchimp and db",
  "form": "08d57a72-b40f-4f8e-a576-ca503fef8b53",
  "active": true,
  "workflowTypeId": "11117eb2-8d61-483c-a3da-7850fce05004",
  "executesOn": "Submitted",
  "settings": {},
  "sortOrder": 1
}