{
  "id": "86b354f7-69d9-478f-b94e-aad760b2382b",
  "name": "Send Email",
  "form": "9c29a58e-36b1-4a8e-aed2-d52c548c04a4",
  "active": true,
  "workflowTypeId": "e96badd7-05be-4978-b8d9-b3d733de70a5",
  "executesOn": "Submitted",
  "settings": {
    "Email": "renanteabril@gmail.com",
    "SenderEmail": "no-reply@e-bureauet.dk",
    "Subject": "Enquiry",
    "Message": "Newsletter Form",
    "Attachment": ""
  },
  "sortOrder": 0
}